[{"page":1,"pages":341,"per_page":50,"total":17024,"sourceid":"2","lastupdated":"2024-11-13"},[{"indicator":{"id":"NY.GDP.MKTP.CD","value":"GDP (current US$)"},"country":{"id":"ZH","value":"Africa Eastern and Southern"},"countryiso3code":"AFE","date":"2023","value":1236163044999.97,"unit":"","obs_status":"","decimal":0},{"indicator":{"id":"NY.GDP.MKTP.CD","value":"GDP (current US$)"},"country":{"id":"ZH","value":"Africa Eastern and Southern"},"countryiso3code":"AFE","date":"2022","value":1183962133998.87,"unit":"","obs_status":"","decimal":0},{"indicator":{"id":"NY.GDP.MKTP.CD","value":"GDP (current US$)"},"country":{"id":"ZH","value":"Africa Eastern and Southern"},"countryiso3code":"AFE","date":"2021","value":1086772164579.87,"unit":"","obs_status":"","decimal":0},{"indicator":{"id":"NY.GDP.MKTP.CD","value":"GDP (current US$)"},"country":{"id":"ZH","value":"Africa Eastern and Southern"},"countryiso3code":"AFE","date":"2020","value":929074086484.093,"unit":"","obs_status":"","decimal":0},{"indicator":{"id":"NY.GDP.MKTP.CD","value":"GDP (current US$)"},"country":{"id":"ZH","value":"Africa Eastern and Southern"},"countryiso3code":"AFE","date":"2019","value":1006527294483.09,"unit":"","obs_status":"","decimal":0},{"indicator":{"id":"NY.GDP.MKTP.CD","value":"GDP (current US$)"},"country":{"id":"ZH","value":"Africa Eastern and Southern"},"countryiso3code":"AFE","date":"2018","value":1012719339457.72,"unit":"","obs_status":"","decimal":0},{"indicator":{"id":"NY.GDP.MKTP.CD","value":"GDP (current US$)"},"country":{"id":"ZH","value":"Africa Eastern and Southern"},"countryiso3code":"AFE","date":"2017","value":940105480733.676,"unit":"","obs_status":"","decimal":0},{"indicator":{"id":"NY.GDP.MKTP.CD","value":"GDP (current US$)"},"country":{"id":"ZH","value":"Africa Eastern and Southern"},"countryiso3code":"AFE","date":"2016","value":829829959319.292,"unit":"","obs_status":"","decimal":0},{"indicator":{"id":"NY.GDP.MKTP.CD","value":"GDP (current US$)"},"country":{"id":"ZH","value":"Africa Eastern and Southern"},"countryiso3code":"AFE","date":"2015","value":899295676086.836,"unit":"","obs_status":"","decimal":0},{"indicator":{"id":"NY.GDP.MKTP.CD","value":"GDP (current US$)"},"country":{"id":"ZH","value":"Africa Eastern and Southern"},"countryiso3code":"AFE","date":"2014","value":979689662429.07,"unit":"","obs_status":"","decimal":0},{"indicator":{"id":"NY.GDP.MKTP.CD","value":"GDP (current US$)"},"country":{"id":"ZH","value":"Africa Eastern and Southern"},"countryiso3code":"AFE","date":"2013","value":963347276805.076,"unit":"","obs_status":"","decimal":0},{"indicator":{"id":"NY.GDP.MKTP.CD","value":"GDP (current US$)"},"country":{"id":"ZH","value":"Africa Eastern and Southern"},"countryiso3code":"AFE","date":"2012","value":952675592818.555,"unit":"","obs_status":"","decimal":0},{"indicator":{"id":"NY.GDP.MKTP.CD","value":"GDP (current US$)"},"country":{"id":"ZH","value":"Africa Eastern and Southern"},"countryiso3code":"AFE","date":"2011","value":945439147816.613,"unit":"","obs_status":"","decimal":0},{"indicator":{"id":"NY.GDP.MKTP.CD","value":"GDP (current US$)"},"country":{"id":"ZH","value":"Africa Eastern and Southern"},"countryiso3code":"AFE","date":"2010","value":849409658737.661,"unit":"","obs_status":"","decimal":0},{"indicator":{"id":"NY.GDP.MKTP.CD","value":"GDP (current US$)"},"country":{"id":"ZH","value":"Africa Eastern and Southern"},"countryiso3code":"AFE","date":"2009","value":715485327250.406,"unit":"","obs_status":"","decimal":0},{"indicator":{"id":"NY.GDP.MKTP.CD","value":"GDP (current US$)"},"country":{"id":"ZH","value":"Africa Eastern and Southern"},"countryiso3code":"AFE","date":"2008","value":713502105052.171,"unit":"","obs_status":"","decimal":0},{"indicator":{"id":"NY.GDP.MKTP.CD","value":"GDP (current US$)"},"country":{"id":"ZH","value":"Africa Eastern and Southern"},"countryiso3code":"AFE","date":"2007","value":665598701583.95,"unit":"","obs_status":"","decimal":0},{"indicator":{"id":"NY.GDP.MKTP.CD","value":"GDP (current US$)"},"country":{"id":"ZH","value":"Africa Eastern and Southern"},"countryiso3code":"AFE","date":"2006","value":580240749509.224,"unit":"","obs_status":"","decimal":0},{"indicator":{"id":"NY.GDP.MKTP.CD","value":"GDP (current US$)"},"country":{"id":"ZH","value":"Africa Eastern and Southern"},"countryiso3code":"AFE","date":"2005","value":516661066465.534,"unit":"","obs_status":"","decimal":0},{"indicator":{"id":"NY.GDP.MKTP.CD","value":"GDP (current US$)"},"country":{"id":"ZH","value":"Africa Eastern and Southern"},"countryiso3code":"AFE","date":"2004","value":442696185471.329,"unit":"","obs_status":"","decimal":0},{"indicator":{"id":"NY.GDP.MKTP.CD","value":"GDP (current US$)"},"country":{"id":"ZH","value":"Africa Eastern and Southern"},"countryiso3code":"AFE","date":"2003","value":355716369427.671,"unit":"","obs_status":"","decimal":0},{"indicator":{"id":"NY.GDP.MKTP.CD","value":"GDP (current US$)"},"country":{"id":"ZH","value":"Africa Eastern and Southern"},"countryiso3code":"AFE","date":"2002","value":267815037918.24,"unit":"","obs_status":"","decimal":0},{"indicator":{"id":"NY.GDP.MKTP.CD","value":"GDP (current US$)"},"country":{"id":"ZH","value":"Africa Eastern and Southern"},"countryiso3code":"AFE","date":"2001","value":260992227336.281,"unit":"","obs_status":"","decimal":0},{"indicator":{"id":"NY.GDP.MKTP.CD","value":"GDP (current US$)"},"country":{"id":"ZH","value":"Africa Eastern and Southern"},"countryiso3code":"AFE","date":"2000","value":287201651448.678,"unit":"","obs_status":"","decimal":0},{"indicator":{"id":"NY.GDP.MKTP.CD","value":"GDP (current US$)"},"country":{"id":"ZH","value":"Africa Eastern and Southern"},"countryiso3code":"AFE","date":"1999","value":265429291621.998,"unit":"","obs_status":"","decimal":0},{"indicator":{"id":"NY.GDP.MKTP.CD","value":"GDP (current US$)"},"country":{"id":"ZH","value":"Africa Eastern and Southern"},"countryiso3code":"AFE","date":"1998","value":268833638136.368,"unit":"","obs_status":"","decimal":0},{"indicator":{"id":"NY.GDP.MKTP.CD","value":"GDP (current US$)"},"country":{"id":"ZH","value":"Africa Eastern and Southern"},"countryiso3code":"AFE","date":"1997","value":288405283765.897,"unit":"","obs_status":"","decimal":0},{"indicator":{"id":"NY.GDP.MKTP.CD","value":"GDP (current US$)"},"country":{"id":"ZH","value":"Africa Eastern and Southern"},"countryiso3code":"AFE","date":"1996","value":272519342675.993,"unit":"","obs_status":"","decimal":0},{"indicator":{"id":"NY.GDP.MKTP.CD","value":"GDP (current US$)"},"country":{"id":"ZH","value":"Africa Eastern and Southern"},"countryiso3code":"AFE","date":"1995","value":273433056168.814,"unit":"","obs_status":"","decimal":0},{"indicator":{"id":"NY.GDP.MKTP.CD","value":"GDP (current US$)"},"country":{"id":"ZH","value":"Africa Eastern and Southern"},"countryiso3code":"AFE","date":"1994","value":243564813413.467,"unit":"","obs_status":"","decimal":0},{"indicator":{"id":"NY.GDP.MKTP.CD","value":"GDP (current US$)"},"country":{"id":"ZH","value":"Africa Eastern and Southern"},"countryiso3code":"AFE","date":"1993","value":240271389187.381,"unit":"","obs_status":"","decimal":0},{"indicator":{"id":"NY.GDP.MKTP.CD","value":"GDP (current US$)"},"country":{"id":"ZH","value":"Africa Eastern and Southern"},"countryiso3code":"AFE","date":"1992","value":239433170776.128,"unit":"","obs_status":"","decimal":0},{"indicator":{"id":"NY.GDP.MKTP.CD","value":"GDP (current US$)"},"country":{"id":"ZH","value":"Africa Eastern and Southern"},"countryiso3code":"AFE","date":"1991","value":273542601824.325,"unit":"","obs_status":"","decimal":0},{"indicator":{"id":"NY.GDP.MKTP.CD","value":"GDP (current US$)"},"country":{"id":"ZH","value":"Africa Eastern and Southern"},"countryiso3code":"AFE","date":"1990","value":251211844157.14,"unit":"","obs_status":"","decimal":0},{"indicator":{"id":"NY.GDP.MKTP.CD","value":"GDP (current US$)"},"country":{"id":"ZH","value":"Africa Eastern and Southern"},"countryiso3code":"AFE","date":"1989","value":214473497464.094,"unit":"","obs_status":"","decimal":0},{"indicator":{"id":"NY.GDP.MKTP.CD","value":"GDP (current US$)"},"country":{"id":"ZH","value":"Africa Eastern and Southern"},"countryiso3code":"AFE","date":"1988","value":202092611345.541,"unit":"","obs_status":"","decimal":0},{"indicator":{"id":"NY.GDP.MKTP.CD","value":"GDP (current US$)"},"country":{"id":"ZH","value":"Africa Eastern and Southern"},"countryiso3code":"AFE","date":"1987","value":185812458342.955,"unit":"","obs_status":"","decimal":0},{"indicator":{"id":"NY.GDP.MKTP.CD","value":"GDP (current US$)"},"country":{"id":"ZH","value":"Africa Eastern and Southern"},"countryiso3code":"AFE","date":"1986","value":154792610860.847,"unit":"","obs_status":"","decimal":0},{"indicator":{"id":"NY.GDP.MKTP.CD","value":"GDP (current US$)"},"country":{"id":"ZH","value":"Africa Eastern and Southern"},"countryiso3code":"AFE","date":"1985","value":143249519478.307,"unit":"","obs_status":"","decimal":0},{"indicator":{"id":"NY.GDP.MKTP.CD","value":"GDP (current US$)"},"country":{"id":"ZH","value":"Africa Eastern and Southern"},"countryiso3code":"AFE","date":"1984","value":166208098815.079,"unit":"","obs_status":"","decimal":0},{"indicator":{"id":"NY.GDP.MKTP.CD","value":"GDP (current US$)"},"country":{"id":"ZH","value":"Africa Eastern and Southern"},"countryiso3code":"AFE","date":"1983","value":179897833535.127,"unit":"","obs_status":"","decimal":0},{"indicator":{"id":"NY.GDP.MKTP.CD","value":"GDP (current US$)"},"country":{"id":"ZH","value":"Africa Eastern and Southern"},"countryiso3code":"AFE","date":"1982","value":169302766914.395,"unit":"","obs_status":"","decimal":0},{"indicator":{"id":"NY.GDP.MKTP.CD","value":"GDP (current US$)"},"country":{"id":"ZH","value":"Africa Eastern and Southern"},"countryiso3code":"AFE","date":"1981","value":177750099368.148,"unit":"","obs_status":"","decimal":0},{"indicator":{"id":"NY.GDP.MKTP.CD","value":"GDP (current US$)"},"country":{"id":"ZH","value":"Africa Eastern and Southern"},"countryiso3code":"AFE","date":"1980","value":168165164238.413,"unit":"","obs_status":"","decimal":0},{"indicator":{"id":"NY.GDP.MKTP.CD","value":"GDP (current US$)"},"country":{"id":"ZH","value":"Africa Eastern and Southern"},"countryiso3code":"AFE","date":"1979","value":129780974539.911,"unit":"","obs_status":"","decimal":0},{"indicator":{"id":"NY.GDP.MKTP.CD","value":"GDP (current US$)"},"country":{"id":"ZH","value":"Africa Eastern and Southern"},"countryiso3code":"AFE","date":"1978","value":110802408134.927,"unit":"","obs_status":"","decimal":0},{"indicator":{"id":"NY.GDP.MKTP.CD","value":"GDP (current US$)"},"country":{"id":"ZH","value":"Africa Eastern and Southern"},"countryiso3code":"AFE","date":"1977","value":98868135189.6069,"unit":"","obs_status":"","decimal":0},{"indicator":{"id":"NY.GDP.MKTP.CD","value":"GDP (current US$)"},"country":{"id":"ZH","value":"Africa Eastern and Southern"},"countryiso3code":"AFE","date":"1976","value":88290755580.5163,"unit":"","obs_status":"","decimal":0},{"indicator":{"id":"NY.GDP.MKTP.CD","value":"GDP (current US$)"},"country":{"id":"ZH","value":"Africa Eastern and Southern"},"countryiso3code":"AFE","date":"1975","value":86883552689.3195,"unit":"","obs_status":"","decimal":0},{"indicator":{"id":"NY.GDP.MKTP.CD","value":"GDP (current US$)"},"country":{"id":"ZH","value":"Africa Eastern and Southern"},"countryiso3code":"AFE","date":"1974","value":81658052383.2557,"unit":"","obs_status":"","decimal":0}]]