[
    {
      "page": 1,
      "pages": 6,
      "per_page": 50,
      "total": 266,
      "sourceid": "2",
      "lastupdated": "2024-11-13"
    },
    [
      {
        "indicator": {
          "id": "NY.GDP.MKTP.CD",
          "value": "GDP (current US$)"
        },
        "country": {
          "id": "ZH",
          "value": "Africa Eastern and Southern"
        },
        "countryiso3code": "AFE",
        "date": "2023",
        "value": 1236163044999.97,
        "unit": "",
        "obs_status": "",
        "decimal": 0
      },
      {
        "indicator": {
          "id": "NY.GDP.MKTP.CD",
          "value": "GDP (current US$)"
        },
        "country": {
          "id": "ZI",
          "value": "Africa Western and Central"
        },
        "countryiso3code": "AFW",
        "date": "2023",
        "value": 796586157553.094,
        "unit": "",
        "obs_status": "",
        "decimal": 0
      },
      {
        "indicator": {
          "id": "NY.GDP.MKTP.CD",
          "value": "GDP (current US$)"
        },
        "country": {
          "id": "1A",
          "value": "Arab World"
        },
        "countryiso3code": "ARB",
        "date": "2023",
        "value": 3491516939569.88,
        "unit": "",
        "obs_status": "",
        "decimal": 0
      },
      {
        "indicator": {
          "id": "NY.GDP.MKTP.CD",
          "value": "GDP (current US$)"
        },
        "country": {
          "id": "S3",
          "value": "Caribbean small states"
        },
        "countryiso3code": "CSS",
        "date": "2023",
        "value": 53252637669.8953,
        "unit": "",
        "obs_status": "",
        "decimal": 0
      },
      {
        "indicator": {
          "id": "NY.GDP.MKTP.CD",
          "value": "GDP (current US$)"
        },
        "country": {
          "id": "B8",
          "value": "Central Europe and the Baltics"
        },
        "countryiso3code": "CEB",
        "date": "2023",
        "value": 2252970882003.43,
        "unit": "",
        "obs_status": "",
        "decimal": 0
      },
      {
        "indicator": {
          "id": "NY.GDP.MKTP.CD",
          "value": "GDP (current US$)"
        },
        "country": {
          "id": "V2",
          "value": "Early-demographic dividend"
        },
        "countryiso3code": "EAR",
        "date": "2023",
        "value": 14847823837515.2,
        "unit": "",
        "obs_status": "",
        "decimal": 0
      },
      {
        "indicator": {
          "id": "NY.GDP.MKTP.CD",
          "value": "GDP (current US$)"
        },
        "country": {
          "id": "Z4",
          "value": "East Asia & Pacific"
        },
        "countryiso3code": "EAS",
        "date": "2023",
        "value": 30775659199419.9,
        "unit": "",
        "obs_status": "",
        "decimal": 0
      },
      {
        "indicator": {
          "id": "NY.GDP.MKTP.CD",
          "value": "GDP (current US$)"
        },
        "country": {
          "id": "4E",
          "value": "East Asia & Pacific (excluding high income)"
        },
        "countryiso3code": "EAP",
        "date": "2023",
        "value": 21150247849983.1,
        "unit": "",
        "obs_status": "",
        "decimal": 0
      },
      {
        "indicator": {
          "id": "NY.GDP.MKTP.CD",
          "value": "GDP (current US$)"
        },
        "country": {
          "id": "T4",
          "value": "East Asia & Pacific (IDA & IBRD countries)"
        },
        "countryiso3code": "TEA",
        "date": "2023",
        "value": 21124121301342.6,
        "unit": "",
        "obs_status": "",
        "decimal": 0
      },
      {
        "indicator": {
          "id": "NY.GDP.MKTP.CD",
          "value": "GDP (current US$)"
        },
        "country": {
          "id": "XC",
          "value": "Euro area"
        },
        "countryiso3code": "EMU",
        "date": "2023",
        "value": 15544858680873.8,
        "unit": "",
        "obs_status": "",
        "decimal": 0
      },
      {
        "indicator": {
          "id": "NY.GDP.MKTP.CD",
          "value": "GDP (current US$)"
        },
        "country": {
          "id": "Z7",
          "value": "Europe & Central Asia"
        },
        "countryiso3code": "ECS",
        "date": "2023",
        "value": 27240628835585.3,
        "unit": "",
        "obs_status": "",
        "decimal": 0
      },
      {
        "indicator": {
          "id": "NY.GDP.MKTP.CD",
          "value": "GDP (current US$)"
        },
        "country": {
          "id": "7E",
          "value": "Europe & Central Asia (excluding high income)"
        },
        "countryiso3code": "ECA",
        "date": "2023",
        "value": 2098349713814.25,
        "unit": "",
        "obs_status": "",
        "decimal": 0
      },
      {
        "indicator": {
          "id": "NY.GDP.MKTP.CD",
          "value": "GDP (current US$)"
        },
        "country": {
          "id": "T7",
          "value": "Europe & Central Asia (IDA & IBRD countries)"
        },
        "countryiso3code": "TEC",
        "date": "2023",
        "value": 5466276097557.08,
        "unit": "",
        "obs_status": "",
        "decimal": 0
      },
      {
        "indicator": {
          "id": "NY.GDP.MKTP.CD",
          "value": "GDP (current US$)"
        },
        "country": {
          "id": "EU",
          "value": "European Union"
        },
        "countryiso3code": "EUU",
        "date": "2023",
        "value": 18349388450765.6,
        "unit": "",
        "obs_status": "",
        "decimal": 0
      },
      {
        "indicator": {
          "id": "NY.GDP.MKTP.CD",
          "value": "GDP (current US$)"
        },
        "country": {
          "id": "F1",
          "value": "Fragile and conflict affected situations"
        },
        "countryiso3code": "FCS",
        "date": "2023",
        "value": 1906801170087.86,
        "unit": "",
        "obs_status": "",
        "decimal": 0
      },
      {
        "indicator": {
          "id": "NY.GDP.MKTP.CD",
          "value": "GDP (current US$)"
        },
        "country": {
          "id": "XE",
          "value": "Heavily indebted poor countries (HIPC)"
        },
        "countryiso3code": "HPC",
        "date": "2023",
        "value": 1130472157492.99,
        "unit": "",
        "obs_status": "",
        "decimal": 0
      },
      {
        "indicator": {
          "id": "NY.GDP.MKTP.CD",
          "value": "GDP (current US$)"
        },
        "country": {
          "id": "XD",
          "value": "High income"
        },
        "countryiso3code": "",
        "date": "2023",
        "value": 67653743404264.1,
        "unit": "",
        "obs_status": "",
        "decimal": 0
      },
      {
        "indicator": {
          "id": "NY.GDP.MKTP.CD",
          "value": "GDP (current US$)"
        },
        "country": {
          "id": "XF",
          "value": "IBRD only"
        },
        "countryiso3code": "IBD",
        "date": "2023",
        "value": 38733043068564.9,
        "unit": "",
        "obs_status": "",
        "decimal": 0
      },
      {
        "indicator": {
          "id": "NY.GDP.MKTP.CD",
          "value": "GDP (current US$)"
        },
        "country": {
          "id": "ZT",
          "value": "IDA & IBRD total"
        },
        "countryiso3code": "IBT",
        "date": "2023",
        "value": 41559721641424.8,
        "unit": "",
        "obs_status": "",
        "decimal": 0
      },
      {
        "indicator": {
          "id": "NY.GDP.MKTP.CD",
          "value": "GDP (current US$)"
        },
        "country": {
          "id": "XH",
          "value": "IDA blend"
        },
        "countryiso3code": "IDB",
        "date": "2023",
        "value": 1044015231915.96,
        "unit": "",
        "obs_status": "",
        "decimal": 0
      },
      {
        "indicator": {
          "id": "NY.GDP.MKTP.CD",
          "value": "GDP (current US$)"
        },
        "country": {
          "id": "XI",
          "value": "IDA only"
        },
        "countryiso3code": "IDX",
        "date": "2023",
        "value": 1786070910237.13,
        "unit": "",
        "obs_status": "",
        "decimal": 0
      },
      {
        "indicator": {
          "id": "NY.GDP.MKTP.CD",
          "value": "GDP (current US$)"
        },
        "country": {
          "id": "XG",
          "value": "IDA total"
        },
        "countryiso3code": "IDA",
        "date": "2023",
        "value": 2828041013610.35,
        "unit": "",
        "obs_status": "",
        "decimal": 0
      },
      {
        "indicator": {
          "id": "NY.GDP.MKTP.CD",
          "value": "GDP (current US$)"
        },
        "country": {
          "id": "V3",
          "value": "Late-demographic dividend"
        },
        "countryiso3code": "LTE",
        "date": "2023",
        "value": 28341396914858.3,
        "unit": "",
        "obs_status": "",
        "decimal": 0
      },
      {
        "indicator": {
          "id": "NY.GDP.MKTP.CD",
          "value": "GDP (current US$)"
        },
        "country": {
          "id": "ZJ",
          "value": "Latin America & Caribbean"
        },
        "countryiso3code": "LCN",
        "date": "2023",
        "value": 7094329636592.51,
        "unit": "",
        "obs_status": "",
        "decimal": 0
      },
      {
        "indicator": {
          "id": "NY.GDP.MKTP.CD",
          "value": "GDP (current US$)"
        },
        "country": {
          "id": "XJ",
          "value": "Latin America & Caribbean (excluding high income)"
        },
        "countryiso3code": "LAC",
        "date": "2023",
        "value": 6050580948759.95,
        "unit": "",
        "obs_status": "",
        "decimal": 0
      },
      {
        "indicator": {
          "id": "NY.GDP.MKTP.CD",
          "value": "GDP (current US$)"
        },
        "country": {
          "id": "T2",
          "value": "Latin America & the Caribbean (IDA & IBRD countries)"
        },
        "countryiso3code": "TLA",
        "date": "2023",
        "value": 6772781697090.74,
        "unit": "",
        "obs_status": "",
        "decimal": 0
      },
      {
        "indicator": {
          "id": "NY.GDP.MKTP.CD",
          "value": "GDP (current US$)"
        },
        "country": {
          "id": "XL",
          "value": "Least developed countries: UN classification"
        },
        "countryiso3code": "LDC",
        "date": "2023",
        "value": 1504251159792.01,
        "unit": "",
        "obs_status": "",
        "decimal": 0
      },
      {
        "indicator": {
          "id": "NY.GDP.MKTP.CD",
          "value": "GDP (current US$)"
        },
        "country": {
          "id": "XO",
          "value": "Low & middle income"
        },
        "countryiso3code": "LMY",
        "date": "2023",
        "value": 37425214512640,
        "unit": "",
        "obs_status": "",
        "decimal": 0
      },
      {
        "indicator": {
          "id": "NY.GDP.MKTP.CD",
          "value": "GDP (current US$)"
        },
        "country": {
          "id": "XM",
          "value": "Low income"
        },
        "countryiso3code": "",
        "date": "2023",
        "value": 646797730009.09,
        "unit": "",
        "obs_status": "",
        "decimal": 0
      },
      {
        "indicator": {
          "id": "NY.GDP.MKTP.CD",
          "value": "GDP (current US$)"
        },
        "country": {
          "id": "XN",
          "value": "Lower middle income"
        },
        "countryiso3code": "",
        "date": "2023",
        "value": 7384750127842.02,
        "unit": "",
        "obs_status": "",
        "decimal": 0
      },
      {
        "indicator": {
          "id": "NY.GDP.MKTP.CD",
          "value": "GDP (current US$)"
        },
        "country": {
          "id": "ZQ",
          "value": "Middle East & North Africa"
        },
        "countryiso3code": "MEA",
        "date": "2023",
        "value": 4287684126920.01,
        "unit": "",
        "obs_status": "",
        "decimal": 0
      },
      {
        "indicator": {
          "id": "NY.GDP.MKTP.CD",
          "value": "GDP (current US$)"
        },
        "country": {
          "id": "XQ",
          "value": "Middle East & North Africa (excluding high income)"
        },
        "countryiso3code": "MNA",
        "date": "2023",
        "value": 1646554468701.67,
        "unit": "",
        "obs_status": "",
        "decimal": 0
      },
      {
        "indicator": {
          "id": "NY.GDP.MKTP.CD",
          "value": "GDP (current US$)"
        },
        "country": {
          "id": "T3",
          "value": "Middle East & North Africa (IDA & IBRD countries)"
        },
        "countryiso3code": "TMN",
        "date": "2023",
        "value": 1629170225345.52,
        "unit": "",
        "obs_status": "",
        "decimal": 0
      },
      {
        "indicator": {
          "id": "NY.GDP.MKTP.CD",
          "value": "GDP (current US$)"
        },
        "country": {
          "id": "XP",
          "value": "Middle income"
        },
        "countryiso3code": "MIC",
        "date": "2023",
        "value": 36786942112904.5,
        "unit": "",
        "obs_status": "",
        "decimal": 0
      },
      {
        "indicator": {
          "id": "NY.GDP.MKTP.CD",
          "value": "GDP (current US$)"
        },
        "country": {
          "id": "XU",
          "value": "North America"
        },
        "countryiso3code": "NAC",
        "date": "2023",
        "value": 29509296092073.6,
        "unit": "",
        "obs_status": "",
        "decimal": 0
      },
      {
        "indicator": {
          "id": "NY.GDP.MKTP.CD",
          "value": "GDP (current US$)"
        },
        "country": {
          "id": "XY",
          "value": "Not classified"
        },
        "countryiso3code": "",
        "date": "2023",
        "value": null,
        "unit": "",
        "obs_status": "",
        "decimal": 0
      },
      {
        "indicator": {
          "id": "NY.GDP.MKTP.CD",
          "value": "GDP (current US$)"
        },
        "country": {
          "id": "OE",
          "value": "OECD members"
        },
        "countryiso3code": "OED",
        "date": "2023",
        "value": 64098865773303,
        "unit": "",
        "obs_status": "",
        "decimal": 0
      },
      {
        "indicator": {
          "id": "NY.GDP.MKTP.CD",
          "value": "GDP (current US$)"
        },
        "country": {
          "id": "S4",
          "value": "Other small states"
        },
        "countryiso3code": "OSS",
        "date": "2023",
        "value": 234402049500.765,
        "unit": "",
        "obs_status": "",
        "decimal": 0
      },
      {
        "indicator": {
          "id": "NY.GDP.MKTP.CD",
          "value": "GDP (current US$)"
        },
        "country": {
          "id": "S2",
          "value": "Pacific island small states"
        },
        "countryiso3code": "PSS",
        "date": "2023",
        "value": 11232231820.2487,
        "unit": "",
        "obs_status": "",
        "decimal": 0
      },
      {
        "indicator": {
          "id": "NY.GDP.MKTP.CD",
          "value": "GDP (current US$)"
        },
        "country": {
          "id": "V4",
          "value": "Post-demographic dividend"
        },
        "countryiso3code": "PST",
        "date": "2023",
        "value": 59851800976561.2,
        "unit": "",
        "obs_status": "",
        "decimal": 0
      },
      {
        "indicator": {
          "id": "NY.GDP.MKTP.CD",
          "value": "GDP (current US$)"
        },
        "country": {
          "id": "V1",
          "value": "Pre-demographic dividend"
        },
        "countryiso3code": "PRE",
        "date": "2023",
        "value": 1562533897053.54,
        "unit": "",
        "obs_status": "",
        "decimal": 0
      },
      {
        "indicator": {
          "id": "NY.GDP.MKTP.CD",
          "value": "GDP (current US$)"
        },
        "country": {
          "id": "S1",
          "value": "Small states"
        },
        "countryiso3code": "SST",
        "date": "2023",
        "value": 298978248910.632,
        "unit": "",
        "obs_status": "",
        "decimal": 0
      },
      {
        "indicator": {
          "id": "NY.GDP.MKTP.CD",
          "value": "GDP (current US$)"
        },
        "country": {
          "id": "8S",
          "value": "South Asia"
        },
        "countryiso3code": "SAS",
        "date": "2023",
        "value": 4475567635413.06,
        "unit": "",
        "obs_status": "",
        "decimal": 0
      },
      {
        "indicator": {
          "id": "NY.GDP.MKTP.CD",
          "value": "GDP (current US$)"
        },
        "country": {
          "id": "T5",
          "value": "South Asia (IDA & IBRD)"
        },
        "countryiso3code": "TSA",
        "date": "2023",
        "value": 4475567635413.06,
        "unit": "",
        "obs_status": "",
        "decimal": 0
      },
      {
        "indicator": {
          "id": "NY.GDP.MKTP.CD",
          "value": "GDP (current US$)"
        },
        "country": {
          "id": "ZG",
          "value": "Sub-Saharan Africa"
        },
        "countryiso3code": "SSF",
        "date": "2023",
        "value": 2032749202553.06,
        "unit": "",
        "obs_status": "",
        "decimal": 0
      },
      {
        "indicator": {
          "id": "NY.GDP.MKTP.CD",
          "value": "GDP (current US$)"
        },
        "country": {
          "id": "ZF",
          "value": "Sub-Saharan Africa (excluding high income)"
        },
        "countryiso3code": "SSA",
        "date": "2023",
        "value": 2030607752381.92,
        "unit": "",
        "obs_status": "",
        "decimal": 0
      },
      {
        "indicator": {
          "id": "NY.GDP.MKTP.CD",
          "value": "GDP (current US$)"
        },
        "country": {
          "id": "T6",
          "value": "Sub-Saharan Africa (IDA & IBRD countries)"
        },
        "countryiso3code": "TSS",
        "date": "2023",
        "value": 2032749202553.06,
        "unit": "",
        "obs_status": "",
        "decimal": 0
      },
      {
        "indicator": {
          "id": "NY.GDP.MKTP.CD",
          "value": "GDP (current US$)"
        },
        "country": {
          "id": "XT",
          "value": "Upper middle income"
        },
        "countryiso3code": "",
        "date": "2023",
        "value": 29403677430761.3,
        "unit": "",
        "obs_status": "",
        "decimal": 0
      },
      {
        "indicator": {
          "id": "NY.GDP.MKTP.CD",
          "value": "GDP (current US$)"
        },
        "country": {
          "id": "1W",
          "value": "World"
        },
        "countryiso3code": "WLD",
        "date": "2023",
        "value": 105435039507024,
        "unit": "",
        "obs_status": "",
        "decimal": 0
      },
      {
        "indicator": {
          "id": "NY.GDP.MKTP.CD",
          "value": "GDP (current US$)"
        },
        "country": {
          "id": "AF",
          "value": "Afghanistan"
        },
        "countryiso3code": "AFG",
        "date": "2023",
        "value": null,
        "unit": "",
        "obs_status": "",
        "decimal": 0
      }
    ]
  ]